{
  "data": [
    {
      "id": "f7da94cb-b22a-410e-b6af-7ac6b365fd9f",
      "type": "posts",
      "lang": "fr",
      "external": true,
      "slug": "voluptatem-beatae-et-doloremque-maiores",
      "data": {
        "title": "Sint quia eveniet maxime. Consequatur aut et amet optio.",
        "content": "",
        "featured": "featured.png",
        "url": null,
        "heading": "infos",
        "published_at": "2020-09-10T00:00:00.000000Z",
        "created_at": "2020-09-10T11:18:26.000000Z",
        "updated_at": "2020-09-10T11:18:26.000000Z"
      },
      "author": {
        "name": "Maurice Vallee",
        "departement": ""
      },
      "meta": {
        "slug": {
          "en": "accusantium-nesciunt-voluptate-nesciunt-fugiat-est-animi-fugit-quia",
          "fr": "voluptatem-beatae-et-doloremque-maiores"
        }
      }
    },
    {
      "id": "73d2d23a-1266-4907-8b4a-6248f4dd4622",
      "type": "posts",
      "lang": "fr",
      "external": true,
      "slug": "culpa-voluptas-veniam-qui-est",
      "data": {
        "title": "Libero omnis deserunt architecto. Et eaque eaque neque.",
        "content": "",
        "featured": "featured.png",
        "url": null,
        "heading": "infos",
        "published_at": "2020-09-10T00:00:00.000000Z",
        "created_at": "2020-09-10T11:18:26.000000Z",
        "updated_at": "2020-09-10T11:18:26.000000Z"
      },
      "author": {
        "name": "Charlotte Guichard",
        "departement": ""
      },
      "meta": {
        "slug": {
          "en": "odio-quo-aliquid-pariatur-odio-qui-dolorem",
          "fr": "culpa-voluptas-veniam-qui-est"
        }
      }
    }
  ],
  "links": {
    "first": "http://api.localhost/api/posts?page=1",
    "last": "http://api.localhost/api/posts?page=5",
    "prev": null,
    "next": "http://api.localhost/api/posts?page=2"
  },
  "meta": {
    "current_page": 1,
    "from": 1,
    "last_page": 5,
    "path": "http://api.localhost/api/posts",
    "per_page": 15,
    "to": 15,
    "total": 61
  }
}
